<?xml version="1.0" encoding="utf-8"?>
<svg version="1.1" xmlns="http://www.w3.org/2000/svg" xmlns:xlink="http://www.w3.org/1999/xlink" x="0px" y="0px"
	 viewBox="231.745 -129.481 29.086 73.656"
	 enable-background="new 231.745 -129.481 29.086 73.656" xml:space="preserve" fill="#bf2130">
<g id="Layer_2" >
	<circle  cx="246.095" cy="-88.97" r="5.594"/>
		<polygon  points="244.173,-125.467 246.052,-129.481 247.865,-125.467 252.324,-124.969 249.065,-121.921
			249.915,-117.521 246.052,-119.695 242.239,-117.521 243.06,-121.892 239.777,-124.881 			"/>
		<polygon  points="249.835,-113.097 249.938,-117.527 253.213,-114.584 257.497,-115.924 255.741,-111.823
			258.293,-108.137 253.879,-108.57 251.268,-105.044 250.256,-109.375 246.049,-110.789 			"/>
		<polygon  points="242.353,-113.097 242.252,-117.527 238.976,-114.584 234.69,-115.924 236.445,-111.823
			233.896,-108.137 238.309,-108.57 240.922,-105.044 241.931,-109.375 246.142,-110.789 			"/>
	<path d="M260.308-106.12h-1.861c0,0-1.819-0.581-3.321,1.994c-1.501,2.575-2.358,4.044-2.358,4.044
		s-0.924,1.839-0.924,4.159v23.408c0,0,0.517,1.757-3.578,0l-6.34-2.721c0,0-1.271-0.231-1.271-1.918v-19.473
		c0,0,0.255-1.434-1.228-3.974l-2.472-4.24c0,0-0.615-1.279-2.231-1.279h-2.251c0,0-1.266-0.219-0.456,1.15l3.74,6.345
		c0,0,0.461,0.452,0.455,2.491c-0.004,2.039-0.021,0.281-0.021,0.281v29.172c0,0-0.623,2.325,2.286,3.587l16.122,6.997
		c0,0,1.686,1.016,1.705-0.883l-0.015-39.788c0,0-0.031-1.04,0.771-2.4c0.802-1.359,3.602-6.104,3.602-6.104
		S261.222-106.12,260.308-106.12z M251.843-65.695v2.319c0,1.476-1.133,0.867-1.133,0.867l-9.269-3.977
		c-1.141-0.489-0.788-1.107-0.788-1.107v-2.812c0-0.563,0.788-0.357,0.788-0.357l9.61,4.17
		C252.091-66.141,251.843-65.695,251.843-65.695z"/>
</g>
</svg>
