<?xml version="1.0" encoding="utf-8"?>
<svg version="1.1" id="Layer_2" xmlns="http://www.w3.org/2000/svg" xmlns:xlink="http://www.w3.org/1999/xlink" x="0px" y="0px"
	 width="35.244px" height="36.923px" viewBox="0 0 35.244 36.923" enable-background="new 0 0 35.244 36.923" xml:space="preserve">
<path fill="#231a1d" d="M26.281,30.625c0,0,8.875-4.625,6.125-16.625c0,0-1.625-9.625-13.375-9.75v1.875l-5-2.75L19.281,0
	l0.125,1.75c0,0,14.125,0.75,15.625,13.125c0,0,0.938,6.625-1.125,11.125c0,0-1.813,3.938-5.5,6.625c0,0-0.625,0.938-1.75,0
	C26.656,32.625,25.343,31.688,26.281,30.625z"/>
<path fill="#231a1d" d="M7.489,7.515c0,0-8.173,5.775-3.836,17.297c0,0,2.903,9.319,14.563,7.865l-0.252-1.858l5.324,2.054
	l-4.749,4.05l-0.359-1.718c0,0-14.097,1.154-17.246-10.907c0,0-1.819-6.439-0.379-11.176c0,0,1.267-4.145,4.561-7.303
	c0,0,0.493-1.013,1.734-0.235C6.849,5.583,8.275,6.336,7.489,7.515z"/>
<path fill="#231a1d" d="M28.531,17.792l-15-8.313c-4.75-1.625-3.625,2.313-3.625,2.313l6.25,16.625c1.625,1.375,2.625-1,2.625-1
	c1.063-1.5-0.375-2.813-0.375-2.813c-0.638-0.537-0.572-1.236-0.375-1.77c0.17-0.459,0.438-0.793,0.438-0.793l2.063-1.813
	c0,0,1.583-1.479,2.54-1.594c0.195,0.033,3.21,1.531,3.21,1.531C30.156,20.167,28.531,17.792,28.531,17.792z M17.906,19.417
	c0,0-1.75,1.625-2.563-1c0,0,0.396,1.375-0.938-3.063s7.083,0.396,5.875,1.25L17.906,19.417z"/>
</svg>
