<?xml version="1.0" encoding="utf-8"?>
<svg version="1.1" id="Layer_1" xmlns="http://www.w3.org/2000/svg" xmlns:xlink="http://www.w3.org/1999/xlink" x="0px" y="0px"
	viewBox="0 0 407 235" enable-background="new 0 0 407 235" xml:space="preserve" fill="#bf2130">
<g id="Layer_2">
	<path  d="M110.458,78.577c0,0-2.311,4.627-6.827,1.322c0,0-2.977-2.643,0.879-7.161c0,0,21.04-27.206,53.758-13.658
		c0,0,16.081,6.924,17.624,28.854c0,0,3.524,24.792-22.914,31.731c0,0-24.124,5.396-31.504-11.456c0,0-8.261-21.37,13.108-30.513
		c0,0,15.092-6.61,20.928,6.608c0,0,4.736,13.329-8.04,15.862c0,0-6.611,0.397-8.236-1.983c-1.137-1.888-1.046-4.697,1.736-5.948
		c1.555-0.502,4.367-0.03,4.958,0c0.594,0.03,2.781-0.131,2.204-4.304c0,0-0.442-5.171-6.938-3.409c0,0-9.474,0.662-12.225,10.355
		c0,0-5.62,16.522,15.2,17.404c0,0,21.148,1.1,23.46-18.617c0,0,2.204-14.54-8.15-23.794c0,0-9.695-9.583-29.082-4.736
		C130.398,65.137,119.49,67.781,110.458,78.577z"/>
		<path  d="M311.491,209.851c-0.698-0.161-1.387-0.367-2.092-0.493c-0.211-0.038-0.384-0.146-0.534-0.286h-35.685
			c-0.221,0.288-0.552,0.501-1.003,0.54c-0.621,0.054-1.294,0.105-1.938,0.247c-0.108,0.199-0.26,0.382-0.51,0.521
			c-0.092,0.053-0.176,0.119-0.266,0.178c0.275,0.475,0.298,1.082-0.206,1.587c-0.013,0.01-0.025,0.021-0.034,0.033
			c-0.216,0.214-0.449,0.308-0.683,0.355c3.492,12.021,13.198,21.926,23.681,21.552c12.827-1.48,18.249-16.633,19.9-22.588
			c-0.025-0.172-0.022-0.342,0.009-0.512C311.966,210.579,311.738,210.208,311.491,209.851z"/>
		<path  d="M289.74,135.651"/>
			<circle  cx="289.524" cy="131.884" r="5.347"/>
				<path  d="M294.526,196.603c0.003,5.554-5.175,5.212-5.175,5.212s-5.173-2.333-5.173-5.212
					c0-2.88,2.316-5.214,5.173-5.214C292.21,191.389,294.526,193.722,294.526,196.603z"/>
				<path  d="M289.524,126.537c0,0-36.117-2.65-37.727,36.439c0,0-0.716,37.042,37.727,38.838v-10.405
					c0,0-27.558-1.198-27.918-28.704c0,0,0.411-24.563,28.565-25.473"/>
				<path  d="M268.567,145.901c0,0-17.06,20.791,4.373,39.78l-10.808-5.072l-3.492-24.06l7.148-14.947
					L268.567,145.901z"/>
				<circle  cx="289.524" cy="149.992" r="5.346"/>
				<path  d="M294.697,178.271c0.007,5.556-5.173,5.215-5.173,5.215s-5.173-2.334-5.173-5.215
					c0-2.878,2.316-5.212,5.173-5.212S294.697,175.392,294.697,178.271z"/>
				<path  d="M289.524,144.646c0,0-18.932,1.485-19.442,17.374c0,0-1.912,19.661,19.442,21.465v-10.188
					c0,0-9.911,0.615-10.73-7.483c0,0-1.913-10.491,10.73-10.475"/>
				<path  d="M279.576,168.626c0,0,1.165,4.145,10.596,4.434v1.416l-5.993,0.461l-2.82-1.59L279.576,168.626z"/>

		<path  d="M290.628,209.071h-17.699h-2.461c0,0-0.189,0.005-0.46,0.064c-0.838,0.179-2.442,0.854-1.578,3.37
			c1.144,3.329,43.687-0.967,43.687-0.967s0.728-2.466-2.419-2.466"/>
		<path  d="M268.179,211.421c0,0,0.543,3.26,2.612,6.931l0.978-3.117l-2.906-3.813H268.179z"/>
		<circle  cx="214.237" cy="89.082" r="11.886"/>
			<polygon  points="210.15,11.529 214.146,3 217.997,11.529 227.473,12.587 220.545,19.063 222.353,28.414
				214.146,23.795 206.041,28.414 207.788,19.126 200.812,12.774 			"/>
			<polygon  points="222.183,37.814 222.4,28.402 229.361,34.654 238.465,31.807 234.733,40.522 240.155,48.354
				230.776,47.435 225.228,54.925 223.078,45.722 214.138,42.718 			"/>
			<polygon  points="206.285,37.814 206.07,28.402 199.11,34.654 190,31.807 193.731,40.522 188.315,48.354
				197.69,47.435 203.243,54.925 205.389,45.722 214.338,42.718 			"/>

		<path d="M244.438,52.639h-3.955c0,0-3.866-1.234-7.058,4.238c-3.189,5.472-5.012,8.593-5.012,8.593
			s-1.963,3.908-1.963,8.838v49.739c0,0,1.101,3.734-7.603,0l-13.472-5.78c0,0-2.702-0.491-2.702-4.075v-41.38
			c0,0,0.544-3.046-2.606-8.444l-5.254-9.01c0,0-1.307-2.719-4.74-2.719h-4.785c0,0-2.689-0.464-0.967,2.445l7.945,13.482
			c0,0,0.981,0.961,0.967,5.293c-0.008,4.333-0.044,0.598-0.044,0.598v61.988c0,0-1.324,4.941,4.856,7.622l34.26,14.868
			c0,0,3.581,2.158,3.623-1.876l-0.033-84.546c0,0-0.066-2.21,1.64-5.101c1.701-2.887,7.652-12.97,7.652-12.97
			S246.381,52.639,244.438,52.639z M226.451,138.54v4.927c0,3.138-2.408,1.843-2.408,1.843l-19.695-8.45
			c-2.426-1.039-1.677-2.353-1.677-2.353v-5.976c0-1.197,1.677-0.759,1.677-0.759l20.419,8.861
			C226.977,137.592,226.451,138.54,226.451,138.54z"/>
			<path fill="none" stroke="#bf2130" stroke-width="4" stroke-miterlimit="10" d="M4.479,156.861h19.721
				c0,0,2.103,0.336,1.473-1.84c-0.712-3.133-3.142-9.179-11.303-9.179c0,0-8.529,0.252-11.144,9.093
				C2.309,156.936,4.479,156.861,4.479,156.861z"/>
			<circle  cx="14.871" cy="134.04" r="7.94"/>

			<path fill="none" stroke="#bf2130" stroke-width="4" stroke-miterlimit="10" d="M26.452,156.861h19.721
				c0,0,2.104,0.336,1.473-1.84c-0.712-3.133-3.142-9.179-11.303-9.179c0,0-8.529,0.252-11.143,9.093
				C24.283,156.936,26.452,156.861,26.452,156.861z"/>
			<circle  cx="36.842" cy="134.04" r="7.94"/>

			<path fill="none" stroke="#bf2130" stroke-width="4" stroke-miterlimit="10" d="M48.653,156.861h19.721
				c0,0,2.103,0.336,1.473-1.84c-0.711-3.133-3.141-9.179-11.302-9.179c0,0-8.529,0.252-11.144,9.093
				C46.484,156.936,48.653,156.861,48.653,156.861z"/>
			<circle  cx="59.045" cy="134.04" r="7.94"/>
			<path fill="none" stroke="#bf2130" stroke-width="4" stroke-miterlimit="10" d="M70.627,156.861h19.72
				c0,0,2.104,0.336,1.473-1.84c-0.712-3.133-3.14-9.179-11.303-9.179c0,0-8.529,0.252-11.142,9.093
				C68.458,156.936,70.627,156.861,70.627,156.861z"/>
			<circle  cx="81.017" cy="134.04" r="7.94"/>
			<path fill="none" stroke="#bf2130" stroke-width="4" stroke-miterlimit="10" d="M92.714,156.861h19.721
				c0,0,2.104,0.336,1.473-1.84c-0.712-3.133-3.14-9.179-11.303-9.179c0,0-8.529,0.252-11.143,9.093
				C90.544,156.936,92.714,156.861,92.714,156.861z"/>
			<circle  cx="103.104" cy="134.04" r="7.94"/>
			<path fill="none" stroke="#bf2130" stroke-width="4" stroke-miterlimit="10" d="M4.479,190.853h19.721
				c0,0,2.103,0.339,1.473-1.837c-0.712-3.134-3.142-9.179-11.303-9.179c0,0-8.529,0.252-11.144,9.091
				C2.309,190.927,4.479,190.853,4.479,190.853z"/>
			<circle  cx="14.871" cy="168.034" r="7.94"/>
			<path fill="none" stroke="#bf2130" stroke-width="4" stroke-miterlimit="10" d="M26.452,190.853h19.721
				c0,0,2.104,0.339,1.473-1.837c-0.712-3.134-3.142-9.179-11.303-9.179c0,0-8.529,0.252-11.143,9.091
				C24.283,190.927,26.452,190.853,26.452,190.853z"/>
			<circle  cx="36.842" cy="168.034" r="7.94"/>
			<path fill="none" stroke="#bf2130" stroke-width="4" stroke-miterlimit="10" d="M48.653,190.853h19.721
				c0,0,2.103,0.339,1.473-1.837c-0.711-3.134-3.141-9.179-11.302-9.179c0,0-8.529,0.252-11.144,9.091
				C46.484,190.927,48.653,190.853,48.653,190.853z"/>
			<circle  cx="59.045" cy="168.034" r="7.94"/>
			<path fill="none" stroke="#bf2130" stroke-width="4" stroke-miterlimit="10" d="M70.627,190.853h19.72
				c0,0,2.104,0.339,1.473-1.837c-0.712-3.134-3.14-9.179-11.3-9.179c0,0-8.532,0.252-11.145,9.091
				C68.458,190.927,70.627,190.853,70.627,190.853z"/>
			<circle  cx="81.017" cy="168.034" r="7.94"/>
			<path fill="none" stroke="#bf2130" stroke-width="4" stroke-miterlimit="10" d="M92.714,190.853h19.721
				c0,0,2.104,0.339,1.473-1.837c-0.712-3.134-3.14-9.179-11.3-9.179c0,0-8.532,0.252-11.146,9.091
				C90.544,190.927,92.714,190.853,92.714,190.853z"/>
			<circle  cx="103.104" cy="168.034" r="7.94"/>

				<path  d="M250.034,223.335l-11.415-26.574l-18.576-11.927l-2.981-9.634l-6.881,2.754l-3.21-8.258l-9.402,3.898
					l-3.9-9.174l-9.174,4.359l-16.742-11.7v-18.115l-8.025,5.047l-4.467-16.054l-3.104,16.742l-9.176-4.587v17.888l-31.504,53.134
					c0.042,0.06,0.072,0.124,0.113,0.176c0.034,0.044,0.042,0.088,0.068,0.133c0.21,0.116,0.406,0.283,0.57,0.508
					c0.118,0.156,0.294,0.28,0.449,0.412c1.743,0.063,3.666,0.344,5.167-0.212c0.897-0.332,1.711-0.685,2.574-0.921l29.21-52.541
					l3.056-0.141c0.114-0.224,0.27-0.424,0.446-0.6c0.052-0.068,0.122-0.12,0.18-0.185c0.44-0.553,1.121-0.933,2.045-0.933
					c0.012,0,0.026,0.004,0.038,0.004c0.016,0,0.034-0.004,0.046-0.004c1.208,0,1.998,0.645,2.381,1.485l1.901-0.088l-37.844,62.151
					H105.6l-4.221,6.136c0.161,0.2,0.256,0.428,0.318,0.676c0.098,0.164,0.166,0.337,0.207,0.524c0,0,20.493-0.04,23.014,0
					c2.518,0.044,3.262-1.648,3.262-1.648l36.819-59.358l23.619,13.762l4.589-2.639l3.897,7.453l7.341-3.895l2.754,6.188
					l5.964-2.521l2.061,6.42l16.971,11.471l6.425,16.05h-54.128l11.459-14.324c-0.07-0.345-0.02-0.726,0.128-1.069
					c-2.73-1.16-5.523-2.173-8.261-3.321c-0.158,0.132-0.352,0.228-0.576,0.288l-18.832,25.632c0,0-0.984,1.513,0.997,1.513h78.175
					C251.847,227.721,250.034,223.335,250.034,223.335z"/>
				<path  d="M173.482,178.302c-2.604-1.409-3.246-1.757-3.246-1.757s-2.432-1.433-3.826,0.764
					c-1.403,2.197-16.627,26.105-16.627,26.105l-5.677,8.913c0.006,0.068,0.014,0.133,0.016,0.2
					c0.017-0.004,0.032-0.012,0.048-0.012c3.33,0.036,6.652,0.367,9.982,0.092l20.549-30.535
					C174.701,182.072,176.086,179.706,173.482,178.302z"/>
				<path  d="M228.82,211.782c-0.964-2.437-8.79-10.414-8.79-10.414s-31.184-15.722-34.01-17.351
					c-2.826-1.633-4.333,0.628-4.333,0.628l-24.718,35.051l-2.167,0.24c-0.494,0.632-1.247,1.068-2.268,1.112
					c-0.336,0.129-0.688,0.229-1.064,0.272c-2.814,0.336-5.628,0.147-8.454,0.128c-0.32,0-0.608-0.052-0.88-0.124l-1.91,0.207
					l-4.01,5.416c0.168,0.229,0.264,0.496,0.306,0.777h22.118c0,0,1.779,0.308,2.964-1.365c1.185-1.674,24.031-33.95,24.031-33.95
					l31.881,14.674l2.065,4.583h-1.041c0.293,0.188,0.549,0.452,0.696,0.856c3.078,0.064,6.148,0.036,9.215-0.08
					C228.532,212.203,228.648,211.972,228.82,211.782z"/>
			<path  d="M139.793,220.3l-3.628,5.66c0,0-1.173,1.761,0.536,1.761c1.707,0,20.449,0,20.449,0l2.478-8.277
				L139.793,220.3z"/>
			<path  d="M148.781,157.364l-36.019,52.558c0.072,0.188,0.118,0.384,0.088,0.597
				c-0.058,0.468-0.15,0.896-0.289,1.341c0.591,0.464,1.255,0.804,2.112,1.052c0.322,0,0.643,0.009,0.962,0.009
				c0.188-0.172,0.406-0.301,0.668-0.353c1.349-0.244,2.698-0.492,4.039-0.801l33.049-54.406h-4.611V157.364z"/>
			<polygon  points="142.941,218.931 143.39,218.931 155.109,218.931 160.905,218.931 158.259,221.149
				144.854,220.04 			"/>
			<polygon  points="126.834,218.84 121.367,223.326 123.929,221.913 			"/>
			<path  d="M107.763,218.84c-1.569,0-1.929,0.9-1.929,0.9l-4.523,6.836c0.232,0.133,0.405,0.316,0.539,0.537
				l5.005-2.366l15.542-0.768l5.636-5.14C128.032,218.84,109.332,218.843,107.763,218.84z"/>
			<path  d="M148.541,205.362c0,0-2.54,3.763-3.971,5.997c-0.338,0.528-0.452,0.9-0.451,1.185
				c0.002,0.031,0.008,0.063,0.008,0.1c0.11,0.784,1.36,0.608,1.36,0.608h6.234c0,0,2.266,0.152,3.064-1.245
				c1.099-1.726,4.236-6.641,4.236-6.641h-10.482V205.362z"/>
			<path  d="M186.291,201.896c0,0-1.015,1.233,0.674-0.944s4.029-1.053,4.029-1.053l3.422,1.385
				c0,0,3.037,1.533,1.338,3.646c-1.693,2.113-0.34,0.429-0.34,0.429L186.291,201.896z"/>
			<path  d="M228.769,210.149l-3.538-5.763c-0.673-0.044-1.177-0.332-1.505-0.757
				c-0.185-0.101-0.345-0.216-0.469-0.372l-16.13-0.961l-2.926,3.479l-4.907,6.044c0,0-1.265,1.429,0.721,1.429h26.469
				C230.346,213.252,228.769,210.149,228.769,210.149z"/>
			<path  d="M145.283,150.872v7.686h7.493c0.108-0.181,0.244-0.345,0.4-0.497c0.216-0.328,0.536-0.572,0.9-0.769
				c0.404-0.28,0.911-0.46,1.537-0.46c1.323,0,2.149,0.769,2.485,1.726h9.042v-7.686H145.283z"/>
			<path  d="M112.868,208.797l-1.391,2.342c0,0-1.527,2.113,0.694,2.113h6.352c0,0,0.799,0.196,1.907-1.621
				c1.105-1.821,0.24-0.953,0.24-0.953l-6.694-0.447L112.868,208.797z"/>
			<path  d="M123.737,217.339c0,0-0.477,1.216-2.525,1.501l1.635,0.772l1.255-1.142L123.737,217.339z"/>
			<path  d="M185.628,217.586c0,0-1.113,1.422,0.841,1.422v0.988h-2.818l0.32-2.21L185.628,217.586z"/>
			<path  d="M154.544,155.571l-2.177,0.64l-1.197,4.812c0,0,0.1-0.191,0.298-0.46c0.1-0.328,0.298-0.601,0.521-0.856
				c0.126-0.304,0.316-0.572,0.546-0.813c0.138-0.236,0.318-0.448,0.532-0.633c0.02-0.024,0.046-0.044,0.068-0.064
				c0.061-0.088,0.152-0.151,0.227-0.228c0.446-0.548,1.119-0.917,2.037-0.917c0.533,0,0.979,0.133,1.349,0.345
				c0.008,0.004,0.016,0.008,0.023,0.012c0.131,0.077,0.249,0.156,0.356,0.253c1.169,0.892,1.337,2.701,0.504,3.874
				c-0.042,0.088-0.082,0.181-0.13,0.264c-0.05,0.121-0.088,0.229-0.172,0.365h3.575l0.554-5.44L154.544,155.571z"/>
			<path  d="M169.193,169.159c0,0-3.674-3.286-6.614,1.457c-2.94,4.74-2.484-4.03-2.484-4.03l6.36-2.177l3.716,2.562
				L169.193,169.159z"/>
			<path  d="M236.79,214.433c0,0,2.545,4.738-2.449,4.575l0.768,2.077h3.971l0.9-2.154v-1.592L236.79,214.433z"/>
			<path  d="M203.488,200.619c0,0,3.75,1.481,1.533,4.18l3.102-0.561v-2.818l-2.317-0.988L203.488,200.619z"/>
			<path  d="M189.015,193.959c0,0-3.216-1.776-5.518,1.474l-0.256-4.427l1.159-0.725l2.071,0.469l2.1,1.024
				L189.015,193.959z"/>
		<path  d="M101.697,226.06c0,0-1.471,1.666,0.835,1.661l0.224-0.607L101.697,226.06z"/>
		<path  d="M159.027,216.778c0,0-1.002,2.152-4.303,2.152l0.672,0.878h4.188l0.422-1.25L159.027,216.778z"/>
		<path  d="M144.122,218.931h-2.299c0,0-1.197,0.073-2.028,1.369c-0.828,1.298,2.38,1.974,2.38,1.974h2.916
			l0.352-2.209L144.122,218.931z"/>
		<path  d="M227.98,200.108c0,0,4.21,2.084,7.088,10.025c0,0,0.893-3.33,1.021-3.778
			c0.129-0.448-2.241-6.744-2.241-6.744L227.98,200.108z"/>
		<path  d="M218.17,200.432c0,0,6.776,2.294,10.65,7.345c0,0,1.562,2.266,0.124,4.396l-6.24-0.817l-4.534-5.051
			V200.432L218.17,200.432z"/>
		<path  d="M313.654,139.847c0,0-3.771,3.88,0.556,7.432c0,0,4.325,4.769,11.315,6.434c0,0,11.427,3.55,19.636-3.66
			c0,0,7.874-7.545,14.088-6.99c0,0,5.328-0.109,10.872,4.771c0,0,4.769,3.314,7.099-0.617c0,0,3.218-4.93-1.772-8.035
			c0,0-5.772-5.992-17.197-5.771c0,0-6.717-0.998-13.064,4.882c0,0-5.903,5.358-12.006,5.676c0,0-7.101,1.313-11.536-4.013
			C321.644,139.954,317.761,135.407,313.654,139.847z"/>
		<path  d="M342.609,165.39c0,0-3.772-3.882,0.554-7.433c0,0,4.324-4.771,11.315-6.434c0,0,11.427-3.548,19.636,3.662
			c0,0,8.864,7.509,14.087,6.988c5.224-0.521,10.873-4.771,10.873-4.771s4.767-3.315,7.099,0.617c0,0,3.217,4.929-1.773,8.036
			c0,0-5.771,5.992-17.196,5.77c0,0-6.716,0.999-13.064-4.882c0,0-5.902-5.357-12.006-5.675c0,0-7.101-1.314-11.537,4.012
			C350.596,165.28,346.713,169.828,342.609,165.39z"/>
		<path  d="M313.654,175.726c0,0-3.771,3.884,0.556,7.433c0,0,4.325,4.771,11.315,6.436c0,0,11.427,3.55,19.636-3.66
			c0,0,7.874-7.545,14.088-6.99c0,0,5.393,0.197,10.872,4.771c0,0,4.769,3.314,7.099-0.616c0,0,2.612-4.596-1.772-8.037
			c0,0-5.772-5.991-17.197-5.769c0,0-6.717-0.997-13.064,4.881c0,0-5.903,5.358-12.006,5.674c0,0-7.101,1.316-11.536-4.01
			C321.644,175.837,317.761,171.288,313.654,175.726z"/>
</g>
</svg>
